%YAML 1.1
%TAG !u! tag:unity3d.com,2011:
--- !u!162 &1
EditorUserSettings:
  m_ObjectHideFlags: 0
  serializedVersion: 4
  m_ConfigSettings:
    RecentlyUsedScenePath-0:
      value: 22424703114646680e0b0227036c4d151713152f623d28393930
      flags: 0
    RecentlyUsedScenePath-1:
      value: 22424703114646642f1c052c01365a1d170311292d67153328271820adc33b36e4ee31fcf53b2b35360cdc3f01300471e704001fef
      flags: 0
    RecentlyUsedScenePath-2:
      value: 22424703114646642f1c052c01365a1d170311292d67153328271820adc33b36e4ee31fcf53b2b35360cdc3f0130046dbc1f0702e212
      flags: 0
    RecentlyUsedScenePath-3:
      value: 22424703114646642f1c052c01365a1d170311292d67153328271820adc73535e7f73ae8fe687129370bfb25
      flags: 0
    RecentlyUsedScenePath-4:
      value: 22424703114646642f1c052c01365a1d170311292d67153328271820adc73535e7f73ae8fe163a2a3c0ebe721130082beb
      flags: 0
    RecentlyUsedScenePath-5:
      value: 22424703114646642f1c052c01365a1d170311292d67153328271820adc73535e7f73ae8fe0e3e3e3507a1290a371526
      flags: 0
    RecentlyUsedScenePath-6:
      value: 22424703114646642f1c052c01365a1d170311292d67153328271820adcc312ee7eb05eceb3f3c28300de10f073b0f3abc1f0702e212
      flags: 0
    RecentlyUsedScenePath-7:
      value: 22424703114646642f1c052c01365a1d170311292d67153328271820adcc3b39e6e224a7f234362820
      flags: 0
    RecentlyUsedScenePath-8:
      value: 22424703114646642f1c052c01365a1d170311292d67153328271820adcd3531ecca33e7f2742a323016f6
      flags: 0
    RecentlyUsedScenePath-9:
      value: 22424703114646642f1c052c01365a1d170311292d67153328271820adc73535e7f73ae8fe742a323016f6
      flags: 0
    vcSharedLogLevel:
      value: 0a5f5209
      flags: 0
  m_VCAutomaticAdd: 1
  m_VCDebugCom: 0
  m_VCDebugCmd: 0
  m_VCDebugOut: 0
  m_SemanticMergeMode: 2
  m_VCShowFailedCheckout: 1
  m_VCOverwriteFailedCheckoutAssets: 1
  m_VCProjectOverlayIcons: 1
  m_VCHierarchyOverlayIcons: 1
  m_VCOtherOverlayIcons: 1
  m_VCAllowAsyncUpdate: 0
